epoch,w0,w1,w2
0,-1.169,-1.279,1.157
1,-1.169,-1.278,1.162
2,-1.172,-1.282,1.162
3,-1.175,-1.285,1.162
4,-1.175,-1.285,1.166
5,-1.175,-1.284,1.171
6,-1.178,-1.288,1.171
7,-1.182,-1.291,1.171
8,-1.182,-1.291,1.174
9,-1.181,-1.290,1.179
10,-1.184,-1.294,1.179
11,-1.188,-1.297,1.179
12,-1.188,-1.297,1.183
13,-1.187,-1.296,1.188
14,-1.190,-1.299,1.188
15,-1.194,-1.303,1.188
16,-1.194,-1.303,1.191
17,-1.193,-1.302,1.196
18,-1.196,-1.305,1.196
19,-1.199,-1.308,1.196
20,-1.199,-1.308,1.199
21,-1.199,-1.308,1.204
22,-1.202,-1.311,1.204
23,-1.205,-1.314,1.204
24,-1.205,-1.314,1.208
25,-1.205,-1.313,1.212
26,-1.208,-1.316,1.212
27,-1.211,-1.319,1.212
28,-1.211,-1.319,1.216
29,-1.211,-1.319,1.220
30,-1.214,-1.322,1.220
31,-1.217,-1.325,1.220
32,-1.217,-1.325,1.223
33,-1.216,-1.324,1.228
34,-1.219,-1.327,1.228
35,-1.222,-1.330,1.228
36,-1.222,-1.330,1.231
37,-1.222,-1.329,1.236
38,-1.225,-1.332,1.236
39,-1.228,-1.335,1.236
40,-1.228,-1.335,1.239
41,-1.227,-1.335,1.243
42,-1.230,-1.338,1.243
43,-1.233,-1.340,1.243
44,-1.233,-1.340,1.246
45,-1.233,-1.340,1.251
46,-1.236,-1.343,1.251
47,-1.239,-1.346,1.251
48,-1.239,-1.346,1.254
49,-1.238,-1.345,1.258
50,-1.241,-1.348,1.258
51,-1.244,-1.351,1.258
52,-1.244,-1.351,1.261
53,-1.243,-1.350,1.266
54,-1.246,-1.353,1.266
55,-1.249,-1.356,1.266
56,-1.249,-1.356,1.268
57,-1.249,-1.355,1.273
58,-1.251,-1.358,1.273
59,-1.254,-1.361,1.273
60,-1.254,-1.361,1.276
61,-1.254,-1.360,1.280
62,-1.257,-1.363,1.280
63,-1.259,-1.365,1.280
64,-1.259,-1.365,1.283
65,-1.259,-1.365,1.287
66,-1.262,-1.368,1.287
67,-1.264,-1.370,1.287
68,-1.264,-1.370,1.289
69,-1.264,-1.370,1.294
70,-1.267,-1.372,1.294
71,-1.269,-1.375,1.294
72,-1.269,-1.375,1.296
73,-1.269,-1.375,1.300
74,-1.271,-1.377,1.300
75,-1.274,-1.380,1.300
76,-1.274,-1.380,1.303
77,-1.274,-1.379,1.307
78,-1.276,-1.382,1.307
79,-1.279,-1.384,1.307
80,-1.279,-1.384,1.310
81,-1.279,-1.384,1.314
82,-1.281,-1.386,1.314
83,-1.284,-1.389,1.314
84,-1.284,-1.389,1.316
85,-1.283,-1.388,1.320
86,-1.286,-1.391,1.320
87,-1.288,-1.393,1.320
88,-1.288,-1.393,1.323
89,-1.288,-1.393,1.327
90,-1.290,-1.395,1.327
91,-1.293,-1.398,1.327
92,-1.293,-1.398,1.329
93,-1.293,-1.397,1.333
94,-1.295,-1.400,1.333
95,-1.298,-1.402,1.333
96,-1.298,-1.402,1.335
97,-1.297,-1.402,1.339
98,-1.300,-1.404,1.339
99,-1.302,-1.407,1.339
100,-1.302,-1.407,1.342
101,-1.302,-1.406,1.345
102,-1.304,-1.409,1.345
103,-1.307,-1.411,1.345
104,-1.307,-1.411,1.348
105,-1.306,-1.411,1.351
106,-1.309,-1.413,1.351
107,-1.311,-1.415,1.351
108,-1.311,-1.415,1.354
109,-1.311,-1.415,1.358
110,-1.313,-1.417,1.358
111,-1.315,-1.419,1.358
112,-1.315,-1.419,1.360
113,-1.315,-1.419,1.363
114,-1.317,-1.421,1.363
115,-1.320,-1.424,1.363
116,-1.320,-1.424,1.366
117,-1.319,-1.423,1.369
118,-1.322,-1.425,1.369
119,-1.324,-1.428,1.369
120,-1.324,-1.428,1.372
121,-1.324,-1.427,1.375
122,-1.326,-1.430,1.375
123,-1.328,-1.432,1.375
124,-1.328,-1.432,1.377
125,-1.328,-1.431,1.381
126,-1.330,-1.434,1.381
127,-1.332,-1.436,1.381
128,-1.332,-1.436,1.383
129,-1.332,-1.435,1.387
130,-1.334,-1.438,1.387
131,-1.336,-1.440,1.387
132,-1.336,-1.440,1.389
133,-1.336,-1.439,1.392
134,-1.338,-1.442,1.392
135,-1.341,-1.444,1.392
136,-1.341,-1.444,1.394
137,-1.340,-1.443,1.398
138,-1.342,-1.446,1.398
139,-1.345,-1.448,1.398
140,-1.345,-1.448,1.400
141,-1.344,-1.447,1.403
142,-1.346,-1.449,1.403
143,-1.349,-1.452,1.403
144,-1.349,-1.452,1.405
145,-1.348,-1.451,1.409
146,-1.350,-1.453,1.409
147,-1.353,-1.455,1.409
148,-1.353,-1.455,1.411
149,-1.352,-1.455,1.414
150,-1.354,-1.457,1.414
151,-1.356,-1.459,1.414
152,-1.356,-1.459,1.416
153,-1.356,-1.459,1.419
154,-1.358,-1.461,1.419
155,-1.360,-1.463,1.419
156,-1.360,-1.463,1.422
157,-1.360,-1.463,1.425
158,-1.362,-1.465,1.425
159,-1.364,-1.467,1.425
160,-1.364,-1.467,1.427
161,-1.364,-1.466,1.430
162,-1.366,-1.468,1.430
163,-1.368,-1.470,1.430
164,-1.368,-1.470,1.432
165,-1.368,-1.470,1.435
166,-1.370,-1.472,1.435
167,-1.372,-1.474,1.435
168,-1.372,-1.474,1.437
169,-1.372,-1.474,1.440
170,-1.374,-1.476,1.440
171,-1.375,-1.477,1.440
172,-1.375,-1.477,1.442
173,-1.375,-1.477,1.445
174,-1.377,-1.479,1.445
175,-1.379,-1.481,1.445
176,-1.379,-1.481,1.447
177,-1.379,-1.481,1.450
178,-1.381,-1.483,1.450
179,-1.383,-1.485,1.450
180,-1.383,-1.485,1.452
181,-1.383,-1.484,1.455
182,-1.385,-1.486,1.455
183,-1.386,-1.488,1.455
184,-1.386,-1.488,1.457
185,-1.386,-1.488,1.460
186,-1.388,-1.490,1.460
187,-1.390,-1.492,1.460
188,-1.390,-1.492,1.462
189,-1.390,-1.491,1.465
190,-1.392,-1.493,1.465
191,-1.394,-1.495,1.465
192,-1.394,-1.495,1.467
193,-1.393,-1.495,1.470
194,-1.395,-1.497,1.470
195,-1.397,-1.498,1.470
196,-1.397,-1.498,1.472
197,-1.397,-1.498,1.474
198,-1.399,-1.500,1.474
199,-1.401,-1.502,1.474
