epoch,w0,w1,w2
0,1.622,0.957,-0.865
1,1.621,0.956,-0.871
2,1.626,0.960,-0.871
3,1.630,0.964,-0.871
4,1.630,0.964,-0.875
5,1.629,0.963,-0.881
6,1.633,0.967,-0.881
7,1.637,0.971,-0.881
8,1.637,0.971,-0.885
9,1.637,0.970,-0.891
10,1.641,0.974,-0.891
11,1.645,0.978,-0.891
12,1.645,0.978,-0.894
13,1.644,0.976,-0.900
14,1.648,0.980,-0.900
15,1.652,0.984,-0.900
16,1.652,0.984,-0.904
17,1.651,0.983,-0.909
18,1.655,0.987,-0.909
19,1.659,0.991,-0.909
20,1.659,0.991,-0.913
21,1.658,0.990,-0.918
22,1.662,0.993,-0.918
23,1.666,0.997,-0.918
24,1.666,0.997,-0.922
25,1.665,0.996,-0.927
26,1.669,1.000,-0.927
27,1.673,1.004,-0.927
28,1.673,1.004,-0.931
29,1.672,1.003,-0.936
30,1.676,1.006,-0.936
31,1.680,1.010,-0.936
32,1.680,1.010,-0.939
33,1.679,1.009,-0.945
34,1.683,1.012,-0.945
35,1.686,1.016,-0.945
36,1.686,1.016,-0.948
37,1.686,1.015,-0.953
38,1.689,1.019,-0.953
39,1.693,1.022,-0.953
40,1.693,1.022,-0.956
41,1.692,1.021,-0.962
42,1.696,1.025,-0.962
43,1.699,1.028,-0.962
44,1.699,1.028,-0.965
45,1.699,1.027,-0.970
46,1.702,1.030,-0.970
47,1.706,1.034,-0.970
48,1.706,1.034,-0.973
49,1.705,1.033,-0.978
50,1.708,1.036,-0.978
51,1.712,1.040,-0.978
52,1.712,1.040,-0.981
53,1.711,1.039,-0.986
54,1.715,1.042,-0.986
55,1.718,1.045,-0.986
56,1.718,1.045,-0.989
57,1.717,1.045,-0.994
58,1.721,1.048,-0.994
59,1.724,1.051,-0.994
60,1.724,1.051,-0.997
61,1.723,1.050,-1.001
62,1.727,1.053,-1.001
63,1.730,1.057,-1.001
64,1.730,1.057,-1.004
65,1.729,1.056,-1.009
66,1.733,1.059,-1.009
67,1.736,1.062,-1.009
68,1.736,1.062,-1.012
69,1.735,1.061,-1.017
70,1.738,1.064,-1.017
71,1.741,1.067,-1.017
72,1.741,1.067,-1.019
73,1.741,1.067,-1.024
74,1.744,1.070,-1.024
75,1.747,1.073,-1.024
76,1.747,1.073,-1.027
77,1.747,1.072,-1.031
78,1.750,1.075,-1.031
79,1.753,1.078,-1.031
80,1.753,1.078,-1.034
81,1.752,1.077,-1.038
82,1.755,1.080,-1.038
83,1.758,1.083,-1.038
84,1.758,1.083,-1.041
85,1.758,1.082,-1.045
86,1.761,1.085,-1.045
87,1.764,1.088,-1.045
88,1.764,1.088,-1.048
89,1.763,1.088,-1.052
90,1.766,1.090,-1.052
91,1.769,1.093,-1.052
92,1.769,1.093,-1.055
93,1.769,1.093,-1.059
94,1.771,1.095,-1.059
95,1.774,1.098,-1.059
96,1.774,1.098,-1.062
97,1.774,1.098,-1.066
98,1.777,1.100,-1.066
99,1.779,1.103,-1.066
100,1.779,1.103,-1.068
101,1.779,1.103,-1.073
102,1.782,1.105,-1.073
103,1.785,1.108,-1.073
104,1.785,1.108,-1.075
105,1.784,1.107,-1.079
106,1.787,1.110,-1.079
107,1.790,1.113,-1.079
108,1.790,1.113,-1.082
109,1.789,1.112,-1.086
110,1.792,1.115,-1.086
111,1.795,1.118,-1.086
112,1.795,1.118,-1.088
113,1.794,1.117,-1.092
114,1.797,1.120,-1.092
115,1.800,1.122,-1.092
116,1.800,1.122,-1.094
117,1.799,1.122,-1.098
118,1.802,1.124,-1.098
119,1.804,1.127,-1.098
120,1.804,1.127,-1.101
121,1.804,1.126,-1.105
122,1.807,1.129,-1.105
123,1.809,1.131,-1.105
124,1.809,1.131,-1.107
125,1.809,1.131,-1.111
126,1.811,1.133,-1.111
127,1.814,1.136,-1.111
128,1.814,1.136,-1.113
129,1.814,1.135,-1.117
130,1.816,1.138,-1.117
131,1.819,1.140,-1.117
132,1.819,1.140,-1.119
133,1.818,1.140,-1.123
134,1.821,1.142,-1.123
135,1.823,1.145,-1.123
136,1.823,1.145,-1.125
137,1.823,1.144,-1.129
138,1.825,1.147,-1.129
139,1.828,1.149,-1.129
140,1.828,1.149,-1.131
141,1.828,1.149,-1.135
142,1.830,1.151,-1.135
143,1.832,1.153,-1.135
144,1.832,1.153,-1.137
145,1.832,1.153,-1.140
146,1.834,1.155,-1.140
147,1.837,1.158,-1.140
148,1.837,1.158,-1.142
149,1.837,1.157,-1.146
150,1.839,1.159,-1.146
151,1.841,1.162,-1.146
152,1.841,1.162,-1.148
153,1.841,1.161,-1.152
154,1.843,1.164,-1.152
155,1.846,1.166,-1.152
156,1.846,1.166,-1.154
157,1.845,1.165,-1.157
158,1.848,1.168,-1.157
159,1.850,1.170,-1.157
160,1.850,1.170,-1.159
161,1.850,1.169,-1.163
162,1.852,1.172,-1.163
163,1.854,1.174,-1.163
164,1.854,1.174,-1.165
165,1.854,1.174,-1.168
166,1.856,1.176,-1.168
167,1.858,1.178,-1.168
168,1.858,1.178,-1.170
169,1.858,1.178,-1.174
170,1.860,1.180,-1.174
171,1.862,1.182,-1.174
172,1.862,1.182,-1.176
173,1.862,1.182,-1.179
174,1.864,1.184,-1.179
175,1.867,1.186,-1.179
176,1.867,1.186,-1.181
177,1.866,1.185,-1.184
178,1.868,1.188,-1.184
179,1.871,1.190,-1.184
180,1.871,1.190,-1.186
181,1.870,1.189,-1.189
182,1.873,1.191,-1.189
183,1.875,1.194,-1.189
184,1.875,1.194,-1.191
185,1.874,1.193,-1.195
186,1.876,1.195,-1.195
187,1.879,1.197,-1.195
188,1.879,1.197,-1.197
189,1.878,1.197,-1.200
190,1.880,1.199,-1.200
191,1.883,1.201,-1.200
192,1.883,1.201,-1.202
193,1.882,1.201,-1.205
194,1.884,1.203,-1.205
195,1.886,1.205,-1.205
196,1.886,1.205,-1.207
197,1.886,1.204,-1.210
198,1.888,1.207,-1.210
199,1.890,1.209,-1.210
